[
{"Username":"John Doe","Email":"test@test.com1"},
{"Username":"Karlee Townsend","Email":"test@test.com2"},
{"Username":"Sadie Richmond","Email":"test@test.com3"},
{"Username":"Sean Shah","Email":"test@test.com4"},
{"Username":"Finn Hooper","Email":"test@test.com5"},
{"Username":"Walter Craig","Email":"test@test.com6"},
{"Username":"Aspen Brown","Email":"test@test.com7"},
{"Username":"Camryn Ewing","Email":"test@test.com8"},
{"Username":"Allen Pugh","Email":"test@test.com9"},
{"Username":"Isabelle Lambert","Email":"test@test.com10"},
{"Username":"Gage Cross","Email":"test@test.com11"},
{"Username":"Gordon Murray","Email":"test@test.com12"},
{"Username":"Alana Rivers","Email":"test@test.com13"}
]
